module gitlab.com/gitlab-org/gitlab-elasticsearch-indexer

go 1.21

require (
	github.com/aws/aws-sdk-go v1.55.5
	github.com/deoxxa/aws_signing_client v0.0.0-20161109131055-c20ee106809e
	github.com/go-enry/go-enry/v2 v2.9.1
	github.com/olivere/elastic/v7 v7.0.32
	github.com/stretchr/testify v1.10.0
	gitlab.com/gitlab-org/gitaly/v16 v16.11.10
	gitlab.com/gitlab-org/go/icu v1.0.2
	gitlab.com/gitlab-org/labkit v1.21.0
	golang.org/x/net v0.30.0
	golang.org/x/tools v0.24.0
	google.golang.org/grpc v1.67.1
)

require (
	cloud.google.com/go/compute/metadata v0.5.0 // indirect
	cloud.google.com/go/monitoring v1.18.0 // indirect
	cloud.google.com/go/trace v1.10.5 // indirect
	contrib.go.opencensus.io/exporter/stackdriver v0.13.14 // indirect
	github.com/DataDog/datadog-go v4.4.0+incompatible // indirect
	github.com/DataDog/sketches-go v1.0.0 // indirect
	github.com/Microsoft/go-winio v0.6.1 // indirect
	github.com/beevik/ntp v1.3.1 // indirect
	github.com/beorn7/perks v1.0.1 // indirect
	github.com/census-instrumentation/opencensus-proto v0.4.1 // indirect
	github.com/cespare/xxhash/v2 v2.3.0 // indirect
	github.com/client9/reopen v1.0.0 // indirect
	github.com/davecgh/go-spew v1.1.2-0.20180830191138-d8f796af33cc // indirect
	github.com/felixge/httpsnoop v1.0.4 // indirect
	github.com/go-enry/go-oniguruma v1.2.1 // indirect
	github.com/go-logr/logr v1.4.1 // indirect
	github.com/go-logr/stdr v1.2.2 // indirect
	github.com/go-ole/go-ole v1.2.6 // indirect
	github.com/gogo/protobuf v1.3.2 // indirect
	github.com/golang/groupcache v0.0.0-20210331224755-41bb18bfe9da // indirect
	github.com/golang/protobuf v1.5.4 // indirect
	github.com/google/s2a-go v0.1.7 // indirect
	github.com/google/uuid v1.6.0 // indirect
	github.com/googleapis/enterprise-certificate-proxy v0.3.2 // indirect
	github.com/googleapis/gax-go/v2 v2.12.2 // indirect
	github.com/grpc-ecosystem/go-grpc-middleware v1.4.0 // indirect
	github.com/grpc-ecosystem/go-grpc-middleware/v2 v2.0.0 // indirect
	github.com/hashicorp/yamux v0.1.2-0.20220728231024-8f49b6f63f18 // indirect
	github.com/jmespath/go-jmespath v0.4.0 // indirect
	github.com/josharian/intern v1.0.0 // indirect
	github.com/kr/text v0.2.0 // indirect
	github.com/lightstep/lightstep-tracer-common/golang/gogo v0.0.0-20210210170715-a8dfcb80d3a7 // indirect
	github.com/lightstep/lightstep-tracer-go v0.25.0 // indirect
	github.com/lufia/plan9stats v0.0.0-20211012122336-39d0f177ccd0 // indirect
	github.com/mailru/easyjson v0.7.7 // indirect
	github.com/oklog/ulid/v2 v2.1.0 // indirect
	github.com/opentracing/opentracing-go v1.2.0 // indirect
	github.com/philhofer/fwd v1.1.1 // indirect
	github.com/pkg/errors v0.9.1 // indirect
	github.com/pmezard/go-difflib v1.0.1-0.20181226105442-5d4384ee4fb2 // indirect
	github.com/power-devops/perfstat v0.0.0-20210106213030-5aafc221ea8c // indirect
	github.com/prometheus/client_golang v1.19.0 // indirect
	github.com/prometheus/client_model v0.6.0 // indirect
	github.com/prometheus/common v0.48.0 // indirect
	github.com/prometheus/procfs v0.12.0 // indirect
	github.com/prometheus/prometheus v0.50.1 // indirect
	github.com/sebest/xff v0.0.0-20210106013422-671bd2870b3a // indirect
	github.com/shirou/gopsutil/v3 v3.21.12 // indirect
	github.com/sirupsen/logrus v1.9.3 // indirect
	github.com/tinylib/msgp v1.1.2 // indirect
	github.com/tklauser/go-sysconf v0.3.9 // indirect
	github.com/tklauser/numcpus v0.3.0 // indirect
	github.com/uber/jaeger-client-go v2.30.0+incompatible // indirect
	github.com/uber/jaeger-lib v2.4.1+incompatible // indirect
	github.com/yusufpapurcu/wmi v1.2.2 // indirect
	go.opencensus.io v0.24.0 // indirect
	go.opentelemetry.io/contrib/instrumentation/google.golang.org/grpc/otelgrpc v0.49.0 // indirect
	go.opentelemetry.io/contrib/instrumentation/net/http/otelhttp v0.49.0 // indirect
	go.opentelemetry.io/otel v1.24.0 // indirect
	go.opentelemetry.io/otel/metric v1.24.0 // indirect
	go.opentelemetry.io/otel/trace v1.24.0 // indirect
	go.uber.org/atomic v1.11.0 // indirect
	golang.org/x/crypto v0.28.0 // indirect
	golang.org/x/mod v0.20.0 // indirect
	golang.org/x/oauth2 v0.22.0 // indirect
	golang.org/x/sync v0.8.0 // indirect
	golang.org/x/sys v0.26.0 // indirect
	golang.org/x/text v0.19.0 // indirect
	golang.org/x/time v0.5.0 // indirect
	golang.org/x/xerrors v0.0.0-20231012003039-104605ab7028 // indirect
	google.golang.org/api v0.169.0 // indirect
	google.golang.org/genproto v0.0.0-20240311173647-c811ad7063a7 // indirect
	google.golang.org/genproto/googleapis/api v0.0.0-20240814211410-ddb44dafa142 // indirect
	google.golang.org/genproto/googleapis/rpc v0.0.0-20240814211410-ddb44dafa142 // indirect
	google.golang.org/protobuf v1.34.2 // indirect
	gopkg.in/DataDog/dd-trace-go.v1 v1.32.0 // indirect
	gopkg.in/yaml.v3 v3.0.1 // indirect
)

exclude (
	// https://gitlab.com/gitlab-org/gitlab-elasticsearch-indexer/-/issues/81
	github.com/gin-gonic/gin v1.4.0
	github.com/gin-gonic/gin v1.5.0
	github.com/gin-gonic/gin v1.6.0
	github.com/gin-gonic/gin v1.6.3
)
